{
  "client": "./src/client/",
  "html": "./src/client/**/*.html",
  "vendorjs": [
    "./bower_components/jquery/dist/jquery.min.js",
    "./bower_components/bootstrap/dist/js/bootstrap.min.js",
    "./bower_components/angular/angular.min.js",
    "./bower_components/angular-ui-router/release/angular-ui-router.min.js",
    "./bower_components/angular-resource/angular-resource.min.js",
    "./bower_components/angular-cookies/angular-cookies.min.js",
    "./src/client/assets/material-bootstrap/js/material.min.js",
    "./src/client/assets/material-bootstrap/js/ripples.min.js",
    "./bower_components/angular-modal-service/dst/angular-modal-service.min.js",
    "./bower_components/angular-drag-and-drop-lists/angular-drag-and-drop-lists.min.js"
  ],
  "vendorcss": [
    "./bower_components/bootstrap/dist/css/bootstrap.min.css",
    "./src/client/assets/material-bootstrap/css/bootstrap-material-design.min.css",
    "./src/client/assets/material-bootstrap/css/ripples.min.css"
  ],
  "scss": [
    "./src/client/styles/**/*.scss"
  ],
  "js": [
    "./src/client/app/**/*module*.js",
    "./src/client/app/**/*.js"
  ],
  "build": "./src/client/assets/build/"
}